Rmarkdown and data import
…
tibble

as_tibble(iris)

# A tibble: 150 x 5
   Sepal.Length Sepal.Width Petal.Length Petal.Width Species
          <dbl>       <dbl>        <dbl>       <dbl>  <fctr>
 1          5.1         3.5          1.4         0.2  setosa
 2          4.9         3.0          1.4         0.2  setosa
 3          4.7         3.2          1.3         0.2  setosa
 4          4.6         3.1          1.5         0.2  setosa
 5          5.0         3.6          1.4         0.2  setosa
 6          5.4         3.9          1.7         0.4  setosa
 7          4.6         3.4          1.4         0.3  setosa
 8          5.0         3.4          1.5         0.2  setosa
 9          4.4         2.9          1.4         0.2  setosa
10          4.9         3.1          1.5         0.1  setosa
# ... with 140 more rows

tibble adjusts to width

as_tibble(iris)

# A tibble: 150 x 5
   Sepal.Length Sepal.Width
          <dbl>       <dbl>
 1          5.1         3.5
 2          4.9         3.0
 3          4.7         3.2
 4          4.6         3.1
 5          5.0         3.6
 6          5.4         3.9
 7          4.6         3.4
 8          5.0         3.4
 9          4.4         2.9
10          4.9         3.1
# ... with 140 more rows, and
#   3 more variables:
#   Petal.Length <dbl>,
#   Petal.Width <dbl>,
#   Species <fctr>
…
cols(
  mpg = col_double(),
  cyl = col_integer(),
  disp = col_double(),
  hp = col_integer(),
  drat = col_double(),
  wt = col_double(),
  qsec = col_double(),
  vs = col_integer(),
  am = col_integer(),
  gear = col_integer(),
  carb = col_integer()
)

# A tibble: 32 x 11
     mpg   cyl  disp    hp  drat    wt  qsec    vs    am  gear  carb
   <dbl> <int> <dbl> <int> <dbl> <dbl> <dbl> <int> <int> <int> <int>
 1  21.0     6 160.0   110  3.90 2.620 16.46     0     1     4     4
 2  21.0     6 160.0   110  3.90 2.875 17.02     0     1     4     4
 3  22.8     4 108.0    93  3.85 2.320 18.61     1     1     4     1
 4  21.4     6 258.0   110  3.08 3.215 19.44     1     0     3     1
 5  18.7     8 360.0   175  3.15 3.440 17.02     0     0     3     2
 6  18.1     6 225.0   105  2.76 3.460 20.22     1     0     3     1
 7  14.3     8 360.0   245  3.21 3.570 15.84     0     0     3     4
 8  24.4     4 146.7    62  3.69 3.190 20.00     1     0     4     2
 9  22.8     4 140.8    95  3.92 3.150 22.90     1     0     4     2
10  19.2     6 167.6   123  3.92 3.440 18.30     1     0     4     4
# ... with 22 more rows
…
