Data transformation
…
Important with large tables

gene_by_exon <- as_tibble(gene_by_exon)
gene_by_exon

# A tibble: 2,436 x 9
   ensembl_gene_id ensembl_transcript_id chromosome_name start_position
             <chr>                 <chr>           <int>          <int>
 1 ENSG00000251972       ENST00000516163              21       25943044
 2 ENSG00000274046       ENST00000617336              21        7092616
 3 ENSG00000278618       ENST00000621412              21       13724189
 4 ENSG00000284448       ENST00000290239              21       33550662
 5 ENSG00000275708       ENST00000615959              21        8208473
 6 ENSG00000202339       ENST00000365469              21       22205192
 7 ENSG00000207098       ENST00000384370              21       32841861
 8 ENSG00000283300       ENST00000637157              21       28743208
 9 ENSG00000160185       ENST00000635189              21       42403447
10 ENSG00000160185       ENST00000291535              21       42403447
# ... with 2,426 more rows, and 5 more variables: end_position <int>,
#   hgnc_symbol <chr>, hgnc_id <chr>, strand <int>, gene_biotype <chr>
…
select() is part of the biomaRt package, need to address dplyr-package with ::!

select example

gene_by_exon %>%
  dplyr::select(hgnc_symbol, chromosome_name, start_position, end_position)

# A tibble: 2,436 x 4
   hgnc_symbol chromosome_name start_position end_position
         <chr>           <int>          <int>        <int>
 1   RNU6-123P              21       25943044     25943145
 2                          21        7092616      7092716
 3   MIR8069-2              21       13724189     13724274
 4     MIR6501              21       33550662     33550728
 5   MIR3648-1              21        8208473      8208652
 6    RNU4-45P              21       22205192     22205332
 7                          21       32841861     32841995
 8                          21       28743208     28743291
 9     UBASH3A              21       42403447     42447681
10     UBASH3A              21       42403447     42447681
# ... with 2,426 more rows
…
Dropping columns

We can drop columns by "negating" their names. Since helpers give us column names, we can negate them too.

gene_by_exon %>%
  dplyr::select(-strand, -starts_with("ensembl"),
                -ends_with("id"))

# A tibble: 2,436 x 5
   chromosome_name start_position end_position hgnc_symbol   gene_biotype
             <int>          <int>        <int>       <chr>          <chr>
 1              21       25943044     25943145   RNU6-123P          snRNA
 2              21        7092616      7092716                   misc_RNA
 3              21       13724189     13724274   MIR8069-2          miRNA
 4              21       33550662     33550728     MIR6501          miRNA
 5              21        8208473      8208652   MIR3648-1          miRNA
 6              21       22205192     22205332    RNU4-45P          snRNA
 7              21       32841861     32841995                     snoRNA
 8              21       28743208     28743291                      snRNA
 9              21       42403447     42447681     UBASH3A protein_coding
10              21       42403447     42447681     UBASH3A protein_coding
# ... with 2,426 more rows
…
perform a nested sorting of all genes:

remove empty strings in gene symbols

hgnc_symbol

ensembl_transcript

gene_by_exon %>%
  filter(hgnc_symbol != "") %>%
  arrange(hgnc_symbol, ensembl_transcript_id) %>% 
  dplyr::select(hgnc_symbol, ensembl_transcript_id, everything())

# A tibble: 1,985 x 9
   hgnc_symbol ensembl_transcript_id ensembl_gene_id chromosome_name
         <chr>                 <chr>           <chr>           <int>
 1       AATBC       ENST00000400385 ENSG00000215458              21
 2       AATBC       ENST00000437258 ENSG00000215458              21
 3       AATBC       ENST00000448247 ENSG00000215458              21
 4      ABCC13       ENST00000429114 ENSG00000243064              21
 5      ABCC13       ENST00000463099 ENSG00000243064              21
 6      ABCC13       ENST00000467409 ENSG00000243064              21
 7      ABCC13       ENST00000471902 ENSG00000243064              21
 8      ABCC13       ENST00000481582 ENSG00000243064              21
 9      ABCC13       ENST00000482980 ENSG00000243064              21
10       ABCG1       ENST00000343687 ENSG00000160179              21
# ... with 1,975 more rows, and 5 more variables: start_position <int>,
#   end_position <int>, hgnc_id <chr>, strand <int>, gene_biotype <chr>
…
find the last gene on chromosome 21.

gene_by_exon %>%
  arrange(desc(end_position)) %>%
  dplyr::select(hgnc_symbol, ends_with("position"))

# A tibble: 2,436 x 3
   hgnc_symbol start_position end_position
         <chr>          <int>        <int>
 1    RPL23AP4       46690764     46691226
 2       PRMT2       46635167     46665124
 3       PRMT2       46635167     46665124
 4       PRMT2       46635167     46665124
 5       PRMT2       46635167     46665124
 6       PRMT2       46635167     46665124
 7       PRMT2       46635167     46665124
 8       PRMT2       46635167     46665124
 9       PRMT2       46635167     46665124
10       PRMT2       46635167     46665124
# ... with 2,426 more rows
…
rename columns with rename(new_name = old_name).

to keep the order correct, read/remember the renaming = as "was".

rename will replace column names

gene_by_exon %>%
  rename(stop = end_position, start = start_position)

# A tibble: 2,436 x 9
   ensembl_gene_id ensembl_transcript_id chromosome_name    start     stop
             <chr>                 <chr>           <int>    <int>    <int>
 1 ENSG00000251972       ENST00000516163              21 25943044 25943145
 2 ENSG00000274046       ENST00000617336              21  7092616  7092716
 3 ENSG00000278618       ENST00000621412              21 13724189 13724274
 4 ENSG00000284448       ENST00000290239              21 33550662 33550728
 5 ENSG00000275708       ENST00000615959              21  8208473  8208652
 6 ENSG00000202339       ENST00000365469              21 22205192 22205332
 7 ENSG00000207098       ENST00000384370              21 32841861 32841995
 8 ENSG00000283300       ENST00000637157              21 28743208 28743291
 9 ENSG00000160185       ENST00000635189              21 42403447 42447681
10 ENSG00000160185       ENST00000291535              21 42403447 42447681
# ... with 2,426 more rows, and 4 more variables: hgnc_symbol <chr>,
#   hgnc_id <chr>, strand <int>, gene_biotype <chr>
…
gene length

gene_by_exon %>%
  mutate(length = end_position - start_position) %>% 
  dplyr::select(hgnc_symbol, length)  

# A tibble: 2,436 x 2
   hgnc_symbol length
         <chr>  <int>
 1   RNU6-123P    101
 2                100
 3   MIR8069-2     85
 4     MIR6501     66
 5   MIR3648-1    179
 6    RNU4-45P    140
 7                134
 8                 83
 9     UBASH3A  44234
10     UBASH3A  44234
# ... with 2,426 more rows

new variables can be used right away

gene_by_exon %>%
  mutate(length = end_position - start_position,
         codons = length %% 3 == 0) %>% 
  dplyr::select(hgnc_symbol, length, codons)  

# A tibble: 2,436 x 3
   hgnc_symbol length codons
         <chr>  <int>  <lgl>
 1   RNU6-123P    101  FALSE
 2                100  FALSE
 3   MIR8069-2     85  FALSE
 4     MIR6501     66   TRUE
 5   MIR3648-1    179  FALSE
 6    RNU4-45P    140  FALSE
 7                134  FALSE
 8                 83  FALSE
 9     UBASH3A  44234  FALSE
10     UBASH3A  44234  FALSE
# ... with 2,426 more rows
…
gene coordinates in Mb

gene_by_exon %>%
  mutate(start_position = start_position / 1e6,
         end_position   = end_position / 1e6) %>% 
  dplyr::select(hgnc_symbol, ends_with("position"))  

# A tibble: 2,436 x 3
   hgnc_symbol start_position end_position
         <chr>          <dbl>        <dbl>
 1   RNU6-123P      25.943044    25.943145
 2                   7.092616     7.092716
 3   MIR8069-2      13.724189    13.724274
 4     MIR6501      33.550662    33.550728
 5   MIR3648-1       8.208473     8.208652
 6    RNU4-45P      22.205192    22.205332
 7                  32.841861    32.841995
 8                  28.743208    28.743291
 9     UBASH3A      42.403447    42.447681
10     UBASH3A      42.403447    42.447681
# ... with 2,426 more rows
…
symbol and length

gene_by_exon %>%
  filter(gene_biotype == "protein_coding") %>% 
  mutate(length = end_position - start_position) %>% 
  dplyr::select(hgnc_symbol, length)

# A tibble: 1,498 x 2
   hgnc_symbol length
         <chr>  <int>
 1     UBASH3A  44234
 2     UBASH3A  44234
 3     UBASH3A  44234
 4     UBASH3A  44234
 5     UBASH3A  44234
 6     UBASH3A  44234
 7     UBASH3A  44234
 8     UBASH3A  44234
 9     UBASH3A  44234
10     SPATC1L  23328
# ... with 1,488 more rows

symbol and length

gene_by_exon %>%
  filter(gene_biotype == "protein_coding") %>% 
  mutate(length = end_position - start_position) %>% 
  dplyr::select(hgnc_symbol, length) %>% 
  distinct()

# A tibble: 233 x 2
   hgnc_symbol length
         <chr>  <int>
 1     UBASH3A  44234
 2     SPATC1L  23328
 3              49131
 4       CXADR  81197
 5        AIRE  12810
 6        ETS2  19648
 7       USP25 150044
 8      MCM3AP  51171
 9     TMPRSS3  24956
10              18173
# ... with 223 more rows
…
Use column conditions for mutate_if()

funs() to wrap functions

mutate_at(), placeholder '.' is the dynamic variable

coordinate conversion

gene_by_exon %>% 
  mutate_at(vars(contains("position")),
            funs(. + 1)) %>%
   dplyr::select(-ends_with("id"))

# A tibble: 2,436 x 6
   chromosome_name start_position end_position hgnc_symbol strand
             <int>          <dbl>        <dbl>       <chr>  <int>
 1              21       25943045     25943146   RNU6-123P     -1
 2              21        7092617      7092717                  1
 3              21       13724190     13724275   MIR8069-2      1
 4              21       33550663     33550729     MIR6501      1
 5              21        8208474      8208653   MIR3648-1      1
 6              21       22205193     22205333    RNU4-45P      1
 7              21       32841862     32841996                 -1
 8              21       28743209     28743292                  1
 9              21       42403448     42447682     UBASH3A      1
10              21       42403448     42447682     UBASH3A      1
# ... with 2,426 more rows, and 1 more variables: gene_biotype <chr>
…
Coordinate conversion

gene_by_exon %>% 
  mutate_if(is.numeric, funs(. + 1)) %>%
  dplyr::select(-ends_with("id"))

# A tibble: 2,436 x 6
   chromosome_name start_position end_position hgnc_symbol strand
             <dbl>          <dbl>        <dbl>       <chr>  <dbl>
 1              22       25943045     25943146   RNU6-123P      0
 2              22        7092617      7092717                  2
 3              22       13724190     13724275   MIR8069-2      2
 4              22       33550663     33550729     MIR6501      2
 5              22        8208474      8208653   MIR3648-1      2
 6              22       22205193     22205333    RNU4-45P      2
 7              22       32841862     32841996                  0
 8              22       28743209     28743292                  2
 9              22       42403448     42447682     UBASH3A      2
10              22       42403448     42447682     UBASH3A      2
# ... with 2,426 more rows, and 1 more variables: gene_biotype <chr>
…
replace all columns by unnamed action in funs()

convert iris from cm to inches

iris %>%
  as_tibble() %>%
  group_by(Species) %>%
  mutate_all(funs(. / 2.54))

# A tibble: 150 x 5
# Groups:   Species [3]
   Sepal.Length Sepal.Width Petal.Length Petal.Width Species
          <dbl>       <dbl>        <dbl>       <dbl>  <fctr>
 1     2.007874    1.377953    0.5511811  0.07874016  setosa
 2     1.929134    1.181102    0.5511811  0.07874016  setosa
 3     1.850394    1.259843    0.5118110  0.07874016  setosa
 4     1.811024    1.220472    0.5905512  0.07874016  setosa
 5     1.968504    1.417323    0.5511811  0.07874016  setosa
 6     2.125984    1.535433    0.6692913  0.15748031  setosa
 7     1.811024    1.338583    0.5511811  0.11811024  setosa
 8     1.968504    1.338583    0.5905512  0.07874016  setosa
 9     1.732283    1.141732    0.5511811  0.07874016  setosa
10     1.929134    1.220472    0.5905512  0.03937008  setosa
# ... with 140 more rows
…
add columns by naming the action in funs()

convert iris from cm to inches

iris %>%
  as_tibble() %>%
  group_by(Species) %>%
  mutate_all(funs(inches = . / 2.54))

# A tibble: 150 x 9
# Groups:   Species [3]
   Sepal.Length Sepal.Width Petal.Length Petal.Width Species
          <dbl>       <dbl>        <dbl>       <dbl>  <fctr>
 1          5.1         3.5          1.4         0.2  setosa
 2          4.9         3.0          1.4         0.2  setosa
 3          4.7         3.2          1.3         0.2  setosa
 4          4.6         3.1          1.5         0.2  setosa
 5          5.0         3.6          1.4         0.2  setosa
 6          5.4         3.9          1.7         0.4  setosa
 7          4.6         3.4          1.4         0.3  setosa
 8          5.0         3.4          1.5         0.2  setosa
 9          4.4         2.9          1.4         0.2  setosa
10          4.9         3.1          1.5         0.1  setosa
# ... with 140 more rows, and 4 more variables: Sepal.Length_inches <dbl>,
#   Sepal.Width_inches <dbl>, Petal.Length_inches <dbl>,
#   Petal.Width_inches <dbl>
…
Not a summarising transformation but frequently used in conjunction

Grouping by more than one or more variables

Use ungroup() once grouped computing done

compute the average number of transcripts, n_distinct()

gene_by_exon %>%
  group_by(ensembl_gene_id, hgnc_symbol) %>% 
  summarise(n_trans = n_distinct(ensembl_transcript_id))

# A tibble: 861 x 3
# Groups:   ensembl_gene_id [?]
   ensembl_gene_id hgnc_symbol n_trans
             <chr>       <chr>   <int>
 1 ENSG00000141956      PRDM15      16
 2 ENSG00000141959        PFKL      12
 3 ENSG00000142149        HUNK       4
 4 ENSG00000142156      COL6A1       7
 5 ENSG00000142166      IFNAR1       3
 6 ENSG00000142168        SOD1       4
 7 ENSG00000142173      COL6A2       8
 8 ENSG00000142178        SIK1       2
 9 ENSG00000142182      DNMT3L       4
10 ENSG00000142185       TRPM2       8
# ... with 851 more rows
…
solution: arrange

gene_by_exon %>%
  group_by(ensembl_gene_id, hgnc_symbol) %>% 
  summarise(n_trans = n_distinct(ensembl_transcript_id)) %>%
  arrange(desc(n_trans))

# A tibble: 861 x 3
# Groups:   ensembl_gene_id [837]
   ensembl_gene_id hgnc_symbol n_trans
             <chr>       <chr>   <int>
 1 ENSG00000205726       ITSN1      32
 2 ENSG00000160191       PDE9A      28
 3 ENSG00000182670        TTC3      25
 4 ENSG00000160255       ITGB2      24
 5 ENSG00000205758      CRYZL1      23
 6 ENSG00000157551      KCNJ15      21
 7 ENSG00000157578       LCA5L      21
 8 ENSG00000183570       PCBP3      21
 9 ENSG00000159140         SON      20
10 ENSG00000205581       HMGN1      20
# ... with 851 more rows

solution: filter the max

gene_by_exon %>%
  group_by(ensembl_gene_id, hgnc_symbol) %>% 
  summarise(n_exon = n_distinct(ensembl_transcript_id)) %>%
  filter(n_exon == max(n_exon))

# A tibble: 861 x 3
# Groups:   ensembl_gene_id [837]
   ensembl_gene_id hgnc_symbol n_exon
             <chr>       <chr>  <int>
 1 ENSG00000141956      PRDM15     16
 2 ENSG00000141959        PFKL     12
 3 ENSG00000142149        HUNK      4
 4 ENSG00000142156      COL6A1      7
 5 ENSG00000142166      IFNAR1      3
 6 ENSG00000142168        SOD1      4
 7 ENSG00000142173      COL6A2      8
 8 ENSG00000142178        SIK1      2
 9 ENSG00000142182      DNMT3L      4
10 ENSG00000142185       TRPM2      8
# ... with 851 more rows
…
     Var1 Freq
1          451
2   AATBC    3
3  ABCC13    6
4   ABCG1   11
5 ADAMTS1    6
6 ADAMTS5    1

count() does the grouping for you and returns a tibble

gene_by_exon %>%
  count(hgnc_symbol)

# A tibble: 529 x 2
   hgnc_symbol     n
         <chr> <int>
 1               451
 2       AATBC     3
 3      ABCC13     6
 4       ABCG1    11
 5     ADAMTS1     6
 6     ADAMTS5     1
 7      ADARB1    15
 8      AGPAT3    18
 9        AIRE     5
10 ANKRD20A11P     6
# ... with 519 more rows
…
with summarise() and n()

gene_by_exon %>%
  group_by(hgnc_symbol) %>%
  summarise(n = n())

# A tibble: 529 x 2
   hgnc_symbol     n
         <chr> <int>
 1               451
 2       AATBC     3
 3      ABCC13     6
 4       ABCG1    11
 5     ADAMTS1     6
 6     ADAMTS5     1
 7      ADARB1    15
 8      AGPAT3    18
 9        AIRE     5
10 ANKRD20A11P     6
# ... with 519 more rows
…
first transcript per gene

gene_by_exon %>%
  group_by(ensembl_gene_id) %>%
  arrange(start_position) %>%
  slice(1) %>%
  dplyr::select(ends_with("id"))

# A tibble: 837 x 3
# Groups:   ensembl_gene_id [837]
   ensembl_gene_id ensembl_transcript_id    hgnc_id
             <chr>                 <chr>      <chr>
 1 ENSG00000141956       ENST00000470586 HGNC:13999
 2 ENSG00000141959       ENST00000349048  HGNC:8876
 3 ENSG00000142149       ENST00000270112 HGNC:13326
 4 ENSG00000142156       ENST00000361866  HGNC:2211
 5 ENSG00000142166       ENST00000493503  HGNC:5432
 6 ENSG00000142168       ENST00000270142 HGNC:11179
 7 ENSG00000142173       ENST00000300527  HGNC:2212
 8 ENSG00000142178       ENST00000270162 HGNC:11142
 9 ENSG00000142182       ENST00000436357  HGNC:2980
10 ENSG00000142185       ENST00000300482 HGNC:12339
# ... with 827 more rows
…
Calculate intergenic distance

tip: renaming in select() call

gene_by_exon %>%
  dplyr::select(ensembl_gene_id, start = start_position, end = end_position) %>% 
  distinct() %>% 
  arrange(start) %>% 
  mutate(lag_end = lag(end),
         intergenic_lg = start - lag(end)) 

# A tibble: 837 x 5
   ensembl_gene_id   start     end lag_end intergenic_lg
             <chr>   <int>   <int>   <int>         <int>
 1 ENSG00000279493 5011799 5017145      NA            NA
 2 ENSG00000277117 5022493 5040666 5017145          5348
 3 ENSG00000279687 5073458 5087867 5040666         32792
 4 ENSG00000280071 5079294 5128425 5087867         -8573
 5 ENSG00000276612 5116343 5133805 5128425        -12082
 6 ENSG00000275464 5130871 5154734 5133805         -2934
 7 ENSG00000280433 5155499 5165472 5154734           765
 8 ENSG00000279669 5232668 5243833 5165472         67196
 9 ENSG00000279094 5499151 5502542 5243833        255318
10 ENSG00000274333 5553637 5614880 5502542         51095
# ... with 827 more rows
…
