TD02 - Using readr to import data
…
Bonus question

In order to keep the the column names found in the original dataset (which are still valid), you might want to use names() to extract them from your tibble.

Solution

read_csv("data/challenge.csv", skip = 1001, col_names = c("x", "y"))

## Parsed with column specification:
## cols(
##   x = col_double(),
##   y = col_date(format = "")
## )

## # A tibble: 1,000 x 2
##            x          y
##        <dbl>     <date>
##  1 0.2383798 2015-01-16
##  2 0.4116800 2018-05-18
##  3 0.7460717 2015-09-05
##  4 0.7234506 2012-11-28
##  5 0.6145241 2020-01-13
##  6 0.4739806 2016-04-17
##  7 0.5784610 2011-05-14
##  8 0.2415937 2020-07-18
##  9 0.1143787 2011-04-30
## 10 0.2983446 2010-05-11
## # ... with 990 more rows

# Or for the "Bonus" question:
read_csv("data/challenge.csv", skip = 1001, col_names = names(challenge))

## Parsed with column specification:
## cols(
##   x = col_double(),
##   y = col_date(format = "")
## )

## # A tibble: 1,000 x 2
##            x          y
##        <dbl>     <date>
##  1 0.2383798 2015-01-16
##  2 0.4116800 2018-05-18
##  3 0.7460717 2015-09-05
##  4 0.7234506 2012-11-28
##  5 0.6145241 2020-01-13
##  6 0.4739806 2016-04-17
##  7 0.5784610 2011-05-14
##  8 0.2415937 2020-07-18
##  9 0.1143787 2011-04-30
## 10 0.2983446 2010-05-11
## # ... with 990 more rows
…
## Parsed with column specification:
## cols(
##   `mpg;cyl;disp;hp;drat;wt;qsec;vs;am;gear;carb` = col_character()
## )

## Warning in rbind(names(probs), probs_f): number of columns of result is not
## a multiple of vector length (arg 1)

## Warning: 32 parsing failures.
## row # A tibble: 5 x 5 col     row   col  expected    actual                     file expected   <int> <chr>     <chr>     <chr>                    <chr> actual 1     1  <NA> 1 columns 4 columns 'data/car_road_test.csv' file 2     2  <NA> 1 columns 4 columns 'data/car_road_test.csv' row 3     3  <NA> 1 columns 5 columns 'data/car_road_test.csv' col 4     4  <NA> 1 columns 5 columns 'data/car_road_test.csv' expected 5     5  <NA> 1 columns 5 columns 'data/car_road_test.csv'
## ... ................. ... .......................................................... ........ .......................................................... ...... .......................................................... .... .......................................................... ... .......................................................... ... .......................................................... ........ ..........................................................
## See problems(...) for more details.

## # A tibble: 32 x 1
##    `mpg;cyl;disp;hp;drat;wt;qsec;vs;am;gear;carb`
##                                             <chr>
##  1                                 21;6;160;110;3
##  2                                 21;6;160;110;3
##  3                                             22
##  4                                             21
##  5                                             18
##  6                                             18
##  7                                             14
##  8                                             24
##  9                                             22
## 10                                             19
## # ... with 22 more rows
…
## cols(
##   mpg = col_number(),
##   cyl = col_integer(),
##   disp = col_number(),
##   hp = col_integer(),
##   drat = col_number(),
##   wt = col_number(),
##   qsec = col_number(),
##   vs = col_integer(),
##   am = col_integer(),
##   gear = col_integer(),
##   carb = col_integer()
## )

## # A tibble: 32 x 11
##      mpg   cyl  disp    hp  drat    wt  qsec    vs    am  gear  carb
##    <dbl> <int> <dbl> <int> <dbl> <dbl> <dbl> <int> <int> <int> <int>
##  1    21     6   160   110    39   262  1646     0     1     4     4
##  2    21     6   160   110    39  2875  1702     0     1     4     4
##  3   228     4   108    93   385   232  1861     1     1     4     1
##  4   214     6   258   110   308  3215  1944     1     0     3     1
##  5   187     8   360   175   315   344  1702     0     0     3     2
##  6   181     6   225   105   276   346  2022     1     0     3     1
##  7   143     8   360   245   321   357  1584     0     0     3     4
##  8   244     4  1467    62   369   319    20     1     0     4     2
##  9   228     4  1408    95   392   315   229     1     0     4     2
## 10   192     6  1676   123   392   344   183     1     0     4     4
## # ... with 22 more rows
…
read the file again importing all columns as text (instead of defining each single column you can use the column name .default to define the default column type). Store the result in an object called car_data_text.

Tip

Importing a data set as text values can often help you in figuring out possible problems: it is the first step the readr function will do and stopping any further processing allows you to access the “raw data”.

extract the mpg column as a vector (columns can be accessed using the $ sign: object$column) and store the result in an object called v_mpg.

Solution

read_delim("data/car_road_test.csv", delim = ";",
           col_types = cols(mpg = "c"))

## # A tibble: 32 x 11
##      mpg   cyl  disp    hp  drat    wt  qsec    vs    am  gear  carb
##    <chr> <int> <dbl> <int> <dbl> <dbl> <dbl> <int> <int> <int> <int>
##  1    21     6   160   110    39   262  1646     0     1     4     4
##  2    21     6   160   110    39  2875  1702     0     1     4     4
##  3  22,8     4   108    93   385   232  1861     1     1     4     1
##  4  21,4     6   258   110   308  3215  1944     1     0     3     1
##  5  18,7     8   360   175   315   344  1702     0     0     3     2
##  6  18,1     6   225   105   276   346  2022     1     0     3     1
##  7  14,3     8   360   245   321   357  1584     0     0     3     4
##  8  24,4     4  1467    62   369   319    20     1     0     4     2
##  9  22,8     4  1408    95   392   315   229     1     0     4     2
## 10  19,2     6  1676   123   392   344   183     1     0     4     4
## # ... with 22 more rows
…
car_data

## # A tibble: 32 x 11
##      mpg   cyl  disp    hp  drat    wt  qsec    vs    am  gear  carb
##    <dbl> <int> <dbl> <int> <dbl> <dbl> <dbl> <int> <int> <int> <int>
##  1  21.0     6 160.0   110  3.90 2.620 16.46     0     1     4     4
##  2  21.0     6 160.0   110  3.90 2.875 17.02     0     1     4     4
##  3  22.8     4 108.0    93  3.85 2.320 18.61     1     1     4     1
##  4  21.4     6 258.0   110  3.08 3.215 19.44     1     0     3     1
##  5  18.7     8 360.0   175  3.15 3.440 17.02     0     0     3     2
##  6  18.1     6 225.0   105  2.76 3.460 20.22     1     0     3     1
##  7  14.3     8 360.0   245  3.21 3.570 15.84     0     0     3     4
##  8  24.4     4 146.7    62  3.69 3.190 20.00     1     0     4     2
##  9  22.8     4 140.8    95  3.92 3.150 22.90     1     0     4     2
## 10  19.2     6 167.6   123  3.92 3.440 18.30     1     0     4     4
## # ... with 22 more rows
…
Tip

Instead of skipping multiple columns you can replace cols() by cols_only() to import only the specified columns.

Solution

read_delim("data/car_road_test.csv",
           delim = ";",
           locale = locale(decimal_mark = ","),
           col_types = cols_only(mpg = col_double(),
                                 cyl = col_integer(),
                                 wt = col_double()))

## # A tibble: 32 x 3
##      mpg   cyl    wt
##    <dbl> <int> <dbl>
##  1  21.0     6 2.620
##  2  21.0     6 2.875
##  3  22.8     4 2.320
##  4  21.4     6 3.215
##  5  18.7     8 3.440
##  6  18.1     6 3.460
##  7  14.3     8 3.570
##  8  24.4     4 3.190
##  9  22.8     4 3.150
## 10  19.2     6 3.440
## # ... with 22 more rows
…
