TD03, programming in R and dplyr
…
count how many individuals originate from each homeworld

Solution

count(starwars, homeworld)

## # A tibble: 49 x 2
##         homeworld     n
##             <chr> <int>
##  1       Alderaan     3
##  2    Aleen Minor     1
##  3         Bespin     1
##  4     Bestine IV     1
##  5 Cato Neimoidia     1
##  6          Cerea     1
##  7       Champala     1
##  8      Chandrila     1
##  9   Concord Dawn     1
## 10       Corellia     2
## # ... with 39 more rows

sort the previous output to highlight the number 1 location

Solution

count(starwars, homeworld) %>%
  arrange(desc(n))

## # A tibble: 49 x 2
##    homeworld     n
##        <chr> <int>
##  1     Naboo    11
##  2  Tatooine    10
##  3      <NA>    10
##  4  Alderaan     3
##  5 Coruscant     3
##  6    Kamino     3
##  7  Corellia     2
##  8  Kashyyyk     2
##  9    Mirial     2
## 10    Ryloth     2
## # ... with 39 more rows
…
count and sort the number of characters per homeworld and species

Solution

count(starwars, homeworld, species) %>%
  arrange(desc(n))

## # A tibble: 58 x 3
##    homeworld  species     n
##        <chr>    <chr> <int>
##  1  Tatooine    Human     8
##  2     Naboo    Human     5
##  3      <NA>    Human     5
##  4  Alderaan    Human     3
##  5     Naboo   Gungan     3
##  6  Corellia    Human     2
##  7 Coruscant    Human     2
##  8    Kamino Kaminoan     2
##  9  Kashyyyk  Wookiee     2
## 10    Mirial Mirialan     2
## # ... with 48 more rows
…
Solution

gene_by_exon %>% 
  dplyr::select(-ensembl_transcript_id, -ensembl_exon_id) %>% 
  distinct() -> genes

Sort the genes by their length.

Solution

gene_by_exon %>%
  mutate(length = end_position - start_position) %>% 
  arrange(length)

## # A tibble: 19,936 x 12
##    ensembl_gene_id ensembl_transcript_id ensembl_exon_id chromosome_name
##              <chr>                 <chr>           <chr>           <int>
##  1 ENSG00000266692       ENST00000581669 ENSE00002724833              21
##  2 ENSG00000275523       ENST00000611656 ENSE00003745719              21
##  3 ENSG00000275167       ENST00000611994 ENSE00003717901              21
##  4 ENSG00000264063       ENST00000577708 ENSE00002724720              21
##  5 ENSG00000277437       ENST00000614492 ENSE00003754026              21
##  6 ENSG00000283904       ENST00000385060 ENSE00001500066              21
##  7 ENSG00000284448       ENST00000290239 ENSE00003729123              21
##  8 ENSG00000275166       ENST00000622292 ENSE00003738277              21
##  9 ENSG00000201025       ENST00000364155 ENSE00001438918              21
## 10 ENSG00000263681       ENST00000582241 ENSE00002698395              21
## # ... with 19,926 more rows, and 8 more variables: start_position <int>,
## #   end_position <int>, hgnc_symbol <chr>, hgnc_id <chr>, strand <int>,
## #   gene_biotype <chr>, phenotype_description <chr>, length <int>
…
